[gd_scene load_steps=8 format=2]

[ext_resource path="res://Models/Cosmo/CosmoNueva.glb" type="PackedScene" id=1]
[ext_resource path="res://Models/Cosmo/Cosmo_Cardigan.tres" type="Material" id=2]
[ext_resource path="res://Models/Cosmo/Cosmo_Features.tres" type="Material" id=3]
[ext_resource path="res://Models/Cosmo/Cosmo_Skin.tres" type="Material" id=4]

[sub_resource type="AnimationNodeAnimation" id=1]
animation = "Idle-loop"

[sub_resource type="AnimationNodeStateMachine" id=2]
states/Idle/node = SubResource( 1 )
states/Idle/position = Vector2( 568, 78 )
start_node = "Idle"

[sub_resource type="AnimationNodeStateMachinePlayback" id=3]

[node name="CosmoNueva" instance=ExtResource( 1 )]
transform = Transform( 0.05, 0, 0, 0, 0.05, 0, 0, 0, 0.05, 0, 0, 0 )

[node name="Cosmo" parent="Armature/Skeleton" index="0"]
material/0 = ExtResource( 3 )
material/1 = ExtResource( 4 )
material/2 = ExtResource( 2 )

[node name="AnimationTree" type="AnimationTree" parent="." index="2"]
tree_root = SubResource( 2 )
anim_player = NodePath("../AnimationPlayer")
active = true
parameters/playback = SubResource( 3 )
